V3 10
FL /home/ultraredrays/Documents/works/EXCPU/src/2011cpuex4/core/branch/sram/top.vhd 2011/11/27.08:32:08 O.40d
EN work/top 1322350343 \
      FL /home/ultraredrays/Documents/works/EXCPU/src/2011cpuex4/core/branch/sram/top.vhd \
      PB ieee/std_logic_1164 1296775758 PB ieee/std_logic_arith 1296775759 \
      PB ieee/STD_LOGIC_UNSIGNED 1296775760 LB UNISIM PH unisim/VCOMPONENTS 1296775759
AR work/top/example 1322350344 \
      FL /home/ultraredrays/Documents/works/EXCPU/src/2011cpuex4/core/branch/sram/top.vhd \
      EN work/top 1322350343 CP IBUFG CP BUFG CP u232c
FL /home/ultraredrays/Documents/works/EXCPU/src/2011cpuex4/core/branch/sram/u232c.vhd 2011/11/27.06:44:48 O.40d
EN work/u232c 1322350341 \
      FL /home/ultraredrays/Documents/works/EXCPU/src/2011cpuex4/core/branch/sram/u232c.vhd \
      PB ieee/std_logic_1164 1296775758 PB ieee/STD_LOGIC_UNSIGNED 1296775760
AR work/u232c/blackbox 1322350342 \
      FL /home/ultraredrays/Documents/works/EXCPU/src/2011cpuex4/core/branch/sram/u232c.vhd \
      EN work/u232c 1322350341
