00001000000000000000000010101000
00100000000110110000000000000000
00100000000111100000000000000001
00000000010110111110000000101010
00000011011000101110100000101010
00000011100111011110100000100101
00000011101111101111000000101010
00010011110000000000000000100001
00100000000000100000000000000001
10001100011111101111111111111100
00000111110000000000000000000000
00100000000110110000000000000001
00100000000111100000000000000001
00000000010110111110000000101010
00000011011000101110100000101010
00000011100111011110100000100101
00000011101111101111000000101010
00010011110000000000000000111111
00100000000000100000000000000001
10001100011111101111111111111100
00000111110000000000000000000000
00100000010001011111111111111111
10101100011000100000000000000000
00100000101000100000000000000000
00100000000111100000000001110000
10101100011111100000000000001000
00100000011000110000000000001100
00001000000000000000000000000100
00100000011000111111111111110100
10001100011001010000000000000000
00100000101001011111111111111110
10101100011000100000000000000100
00100000101000100000000000000000
00100000000111100000000010010100
10101100011111100000000000010000
00100000011000110000000000010100
00001000000000000000000000000100
00100000011000111111111111101100
10001100011001010000000000000100
00000000101000100001000000100000
10001100011111101111111111111100
00000111110000000000000000000000
00100000000000100000000000000000
00100000000111100000000010111100
10101100011111100000000000001000
00100000011000110000000000001100
00001000000000000000000000000100
00100000011000111111111111110100
00100000010000100000000000000000
00100000000111100000000011010100
10101100011111100000000000001000
00100000011000110000000000001100
00100000011000111111111111110100
00100011001110010000000000011001
