0000000 000014 001000 000400 110137 061440 026001 061400 014030
0000020 102040 102003 102000 014040 016440 011004 136457 005000
0000040 136443 000000 136457 005000 136443 000000 076610 000000
0000060 061440 002000 016440 011404 136457 005000 136443 000000
0000100 136457 005000 136443 000000 076610 000000 061440 002000
0000120 016440 174003 136457 005000 136443 000000 136457 005000
0000140 136443 000000 076610 000000 076744 000000 016500 021350
0000160 076740 000000 061440 002000 016440 176003 136457 005000
0000200 136443 041402 136457 005000 136443 154003 076610 000000
0000220 061440 002000 016440 002004 136457 005000 136443 041402
0000240 136457 005000 136443 156003 076610 000000 061440 002000
0000260 016440 010404 136457 005000 136443 000000 136457 005000
0000300 136443 000000 076610 000000 061440 002000 016440 174003
0000320 136457 005000 136443 000000 136457 005000 136443 000000
0000340 076610 000000 061440 002000 016440 000004 136457 005000
0000360 136443 000000 136457 005000 136443 000000 076610 000000
0000400 061440 002000 016440 001004 136457 005000 136443 000000
0000420 136457 005000 136443 000000 076610 000000 061440 002000
0000440 016440 170003 136457 005000 136443 000000 136457 005000
0000460 136443 000000 076610 000000 061440 002000 016440 000000
0000500 136457 005000 136443 000000 136457 005000 136443 000000
0000520 076610 000000 061440 002000 000014 145002 000214 000400
0000540 001344 024000 000000 021000 001100 021020 000500 021010
0000560 040500 025360 000500 021010 001100 021020 140003 025760
0000600 140023 000400 160007 000000 000214 000400 001344 024000
0000620 000000 021000 040500 021010 160007 000000 000214 000400
0000640 001344 022000 000000 021000 021100 014010 160007 000000
0000660 000214 000400 001344 024000 000000 021000 001100 021020
0000700 000500 021010 040500 025360 000500 021010 001100 021020
0000720 140003 025760 140023 001000 000440 000000 160007 000000
0000740 000440 000400 160007 000000 000214 000400 001344 024000
0000760 000000 021000 000500 021010 001100 021020 021100 025360
0001000 001100 021020 000500 021010 140003 025760 140023 001000
0001020 000440 000000 160007 000000 000440 000400 160007 000000
0001040 000214 000400 001344 024000 000000 021000 021100 025760
0001060 140023 001000 000440 000400 160007 000000 000440 000000
0001100 160007 000000 001000 021020 000400 021010 040400 025360
0001120 000400 021010 001000 021020 140003 025760 140023 001000
0001140 000440 000000 160007 000000 000440 000400 160007 000000
0001160 000214 000400 001344 024000 000000 021000 040500 021010
0001200 160007 000000 020500 014010 160007 000000 000214 000400
0001220 002344 020000 000000 021000 002100 021040 000500 021010
0001240 100500 025360 000500 021010 002100 021040 140003 025760
0001260 140023 004000 000214 000400 002344 016000 000000 021000
0001300 022100 021040 021500 021010 040500 015030 100100 020010
0001320 000010 121400 060100 020010 160007 000000 000214 000400
0001340 001344 014000 000000 021000 000214 000400 001744 012000
0001360 000000 021000 020500 014040 000214 000400 002744 024000
0001400 000000 021000 060740 000000 061340 001000 100100 020020
0001420 060100 020010 120100 020030 077610 001400 061440 002000
0001440 000014 121400 061440 176377 077614 001400 061344 001000
0001460 040500 021010 061344 000000 040500 015010 160007 000000
0001500 000214 000400 001344 010000 000000 021000 000214 000400
0001520 001744 016000 000000 021000 041500 014030 000214 000400
0001540 002344 022000 000000 021000 042100 014040 000214 000400
0001560 002744 024000 000000 021000 000500 021010 002500 021050
0001600 022500 025360 002500 021050 000500 021010 140003 025760
0001620 140023 001000 000440 000000 000010 164000 000440 000400
0001640 062340 000000 060610 000400 061340 001000 061740 002000
0001660 077610 002400 061440 003000 000014 053400 061440 175377
0001700 077614 002400 061344 002000 021100 015030 060740 003000
0001720 060100 020010 077610 003400 061440 004000 000014 173002
0001740 061440 174377 077614 003400 061344 002000 040500 014010
0001760 061744 003000 060500 021010 061744 001000 000500 021010
0002000 001500 021030 021500 025360 001500 021030 000500 021010
0002020 140003 025760 140023 001000 060614 000400 000010 007401
0002040 060614 000400 017040 000000 037000 025760 140023 001000
0002060 000440 000400 000010 007401 000440 000000 000500 021010
0002100 001500 021030 021500 025360 001500 021030 000500 021010
0002120 140003 025760 140023 000400 000010 014001 040500 021010
0002140 061344 000000 000500 021010 001100 021020 021100 025360
0002160 001100 021020 000500 021010 140003 025760 140023 000400
0002200 000010 021001 060500 021010 000214 000400 001344 022000
0002220 000000 021000 021100 014010 060610 003400 077610 004000
0002240 061440 004400 000014 133400 061440 173777 077614 004000
0002260 060614 003400 017040 000000 037000 025760 140023 002400
0002300 000214 000400 001344 014000 000000 021000 001100 021020
0002320 000010 034001 000214 000400 001344 014000 000000 021000
0002340 000214 000400 001744 016000 000000 021000 060500 014030
0002360 000214 000400 002344 014000 000000 021000 020500 014010
0002400 100500 020010 060500 015010 040500 014010 160007 000000
0002420 000214 000400 001344 006000 000000 021000 040500 021010
0002440 000010 150000 000214 000400 001344 006000 000000 021000
0002460 040500 021010 000010 150000 000214 000400 002344 022000
0002500 000000 021000 002100 021040 000500 021010 100500 025360
0002520 000500 021010 002100 021040 140003 025760 140023 011000
0002540 000214 000400 002344 014000 000000 021000 022100 021040
0002560 020500 014050 121100 014050 000214 000400 003344 016000
0002600 000000 021000 140500 014010 000214 000400 003344 014000
0002620 000000 021000 023100 020010 021500 020010 120500 015030
0002640 100100 020010 000010 047001 060100 020010 160007 000000
0002660 000214 000400 001344 010000 000000 021000 000214 000400
0002700 001744 014000 000000 021000 000500 021010 001500 021030
0002720 021500 025360 001500 021030 000500 021010 140003 025760
0002740 140023 007400 000214 000400 001744 004000 000000 021000
0002760 001500 021030 000500 021010 060500 025360 000500 021010
0003000 001500 021030 140003 025760 140023 001000 000440 000000
0003020 000010 103401 000440 000400 000400 021010 000010 104401
0003040 000440 000400 061340 000000 060610 000400 060740 001000
0003060 077610 001400 061440 002000 000014 053400 061440 176377
0003100 077614 001400 000214 000400 001344 014000 000000 021000
0003120 000500 021010 001100 021020 021100 025360 001100 021020
0003140 000500 021010 140003 025760 140023 001000 060744 001000
0003160 000010 121001 000214 000400 000744 014000 000000 021000
0003200 061344 001000 021100 015010 000214 000400 001344 002000
0003220 000000 021000 020500 014030 000214 000400 002344 024000
0003240 000000 021000 060740 002000 040100 020010 060100 020020
0003260 100100 020030 077610 002400 061440 003000 000014 047001
0003300 061440 175377 077614 002400 000214 000400 001344 014000
0003320 000000 021000 040500 020010 061344 002000 040500 015010
0003340 060614 000400 017040 000000 000400 021010 017000 021360
0003360 037000 025360 017000 021360 000400 021010 140003 025760
0003400 140023 006400 017040 000000 037000 025360 140003 025760
0003420 140023 000400 160007 000000 061344 000000 001100 021020
0003440 000214 000400 001744 016000 000000 021000 041500 015020
0003460 040500 021010 160007 000000 000214 000400 001344 016000
0003500 000000 021000 061744 000000 061100 015020 040500 021010
0003520 160007 000000 060610 000000 077610 000400 061440 001000
0003540 000014 156402 061440 177377 077614 000400 017040 030000
0003560 037000 025360 140003 025760 140023 003000 001040 005000
0003600 062614 000000 121000 014020 020440 150377 040400 020010
0003620 000010 152401 060614 000000 160007 000000 077610 000000
0003640 061440 000400 000014 156402 061440 177777 077614 000000
0003660 017040 026400 037000 025760 140023 005000 000440 000000
0003700 060610 000000 077610 000400 061440 001000 000014 163401
0003720 061440 177377 077614 000400 061214 000000 040400 021010
0003740 160007 000000 017040 030000 037000 025360 140003 025760
0003760 140023 001000 020440 150377 000010 152401 000010 163401
0004000 060610 000000 062610 000400 061210 001000 077610 001400
0004020 061440 002000 000014 156402 061440 176377 077614 001400
0004040 017040 027000 037000 025760 140023 002000 000440 005000
0004060 061214 001000 062614 000400 000010 000002 017040 030000
0004100 037000 025360 140003 025760 140023 004400 001040 005000
0004120 062614 001000 121000 014020 020440 150377 040400 020020
0004140 060614 000000 062614 000400 120400 014050 000010 000002
0004160 060614 001000 077610 001400 061440 002000 000014 074003
0004200 061440 176377 077614 001400 060614 000400 060740 002000
0004220 077610 002400 061440 003000 000014 074003 061440 175377
0004240 077614 002400 061344 002000 040500 015010 160007 000000
0004260 077610 000000 061440 000400 000014 156402 061440 177777
0004300 077614 000000 017040 026400 037000 025760 140023 006000
0004320 000214 000400 000744 024000 000000 021000 060740 000000
0004340 077610 000400 061440 001000 000014 026002 061440 177377
0004360 077614 000400 061344 000000 040500 021010 160007 000000
0004400 017040 030000 037000 025360 140003 025760 140023 003400
0004420 001040 000400 020440 150377 002440 000400 056440 000000
0004440 021040 000000 120443 000000 000010 000002 000010 026002
0004460 102617 001000 103217 000400 023440 000400 161000 025760
0004500 140023 000400 160007 000000 021000 020070 004040 001000
0004520 163450 000400 143400 014060 003000 021060 002400 021050
0004540 142400 025360 002400 021050 003000 021060 140003 025760
0004560 140023 001400 160440 000000 116617 000000 120007 000000
0004600 161040 000000 116617 000000 120007 000000 116040 000000
0004620 102040 001400 002440 046002 102613 000000 100613 001000
0004640 101213 000400 001040 000000 040400 021020 056440 000000
0004660 021040 000000 120443 000000 116617 000000 120007 000000
0004700 017040 000000 037000 025760 140023 000400 160007 000000
0004720 001040 005000 060610 000000 077610 000400 061440 001000
0004740 000014 061402 061440 177377 077614 000400 077610 000400
0004760 061440 001000 000014 070002 061440 177377 077614 000400
0005000 001040 005000 060614 000000 077610 000400 061440 001000
0005020 000014 061402 061440 177377 077614 000400 001040 005000
0005040 021000 014010 061214 000000 040400 021010 000010 171402
0005060 017040 000000 037000 025760 140023 001000 000440 000000
0005100 000010 171402 017040 000000 037000 025360 140003 025760
0005120 140023 000400 000010 070002 001040 026400 060610 000000
0005140 040440 000000 077610 000400 061440 001000 000014 054403
0005160 061440 177377 077614 000400 000440 000000 061214 000000
0005200 021000 021010 000010 070002 000214 000400 001344 016000
0005220 000000 021000 001100 021020 000500 021010 040500 025360
0005240 000500 021010 001100 021020 140003 025760 140023 015000
0005260 000214 000400 001344 014000 000000 021000 021100 021020
0005300 060740 000000 040100 020010 077610 000400 061440 001000
0005320 000014 121002 061440 177377 077614 000400 000214 000400
0005340 001344 016000 000000 021000 061744 000000 061100 021020
0005360 060740 001000 040100 020010 077610 001400 061440 002000
0005400 000014 121002 061440 176377 077614 001400 061344 001000
0005420 040500 020010 160007 000000 000214 000400 000744 014000
0005440 000000 021000 160007 000000 000214 000400 000744 000000
0005460 000000 021000 077610 000000 061440 000400 000014 121002
0005500 061440 177777 077614 000000 077610 000000 061440 000400
0005520 000014 031003 061440 177777 077614 000000 077610 000000
0005540 061440 000400 000014 106002 061440 177777 077614 000000
0005560 000010 117403 020374 000000 160007 000000 036440 000000
0005600 100440 000000 120003 025740 100003 025740 100023 002000
0005620 101210 000000 136443 177777 102040 000400 000010 160402
0005640 160007 000000 036440 000000 100440 000000 120003 025740
0005660 100003 025740 100023 002000 100740 000000 136443 177777
0005700 102040 000400 000010 165402 160007 000000 020440 030000
0005720 020370 000000 160007 000000 060610 014000 020100 025320
0005740 075210 004000 040023 000400 000500 021010 015040 000100
0005760 015440 000002 055403 014320 015440 113000 055403 014330
0006000 075610 006000 075744 006000 060740 010000 035500 025350
0006020 120023 004000 077610 002000 061440 016000 000014 031003
0006040 000014 074003 061440 162377 077614 002000 075344 010000
0006060 040503 025350 015040 174003 015440 000020 055403 014320
0006100 015440 000001 055403 014320 075210 012000 075744 012000
0006120 120023 000400 035500 021010 075214 004000 040023 003000
0006140 075344 010000 035100 025750 016040 000400 136023 000400
0006160 035500 020010 000500 021010 060614 014000 160007 000000
0006200 061340 002000 040500 025330 060023 001400 021100 021010
0006220 055043 000400 000010 020403 021100 020320 041043 000000
0006240 075340 004000 076214 004000 075614 002000 115403 021010
0006260 160007 000000 060744 004000 061214 014000 061344 016000
0006300 000440 000000 160007 000000 061210 014000 061340 016000
0006320 060740 004000 076614 004000 120003 025320 075210 006000
0006340 040023 001000 000500 021010 016400 021350 120023 170777
0006360 015040 000100 015440 000002 055403 014320 075210 010000
0006400 015440 113000 055403 014330 075610 012000 015040 000117
0006420 015440 000001 055403 014320 055403 014320 135003 025340
0006440 100023 162377 061344 012000 077610 002000 061440 020000
0006460 000014 020003 061440 160377 077614 002000 075214 010000
0006500 041003 014330 035400 020010 076214 006000 100023 000400
0006520 000400 021010 060744 004000 061214 014000 061344 016000
0006540 160007 000000 020370 000000 160007 000000 021000 020320
0006560 061210 002000 075210 004000 075344 002000 075744 004000
0006600 075103 021010 160007 000000 035050 000400 041003 014330
0006620 035400 021330 062610 002000 075344 002000 040023 001400
0006640 075103 020330 055043 177777 000010 063403 075740 004000
0006660 060443 000000 061214 002000 077610 000000 061440 006000
0006700 000014 055403 061440 172377 077614 000000 075744 004000
0006720 035500 020010 160007 000000 000100 020010 160007 000000
0006740 060610 004000 061210 006000 062610 010000 020020 175377
0006760 020000 025320 075210 012000 040023 000400 000400 021010
0007000 015040 000100 015440 000002 055403 014320 015440 113000
0007020 055403 014330 040403 025340 016440 000400 061043 000000
0007040 116423 003000 077610 002000 061440 014000 000014 055403
0007060 061440 164377 077614 002000 000010 113003 041043 000000
0007100 062443 000000 077610 002000 061440 014000 000014 061003
0007120 061440 164377 077614 002000 075214 012000 040023 000400
0007140 000500 021010 060614 004000 061214 006000 062614 010000
0007160 160007 000000 020504 000000 160007 000000 000000 000000
0007200 000000 000000 000000 000000
0007210
